{
  "$schema": "https://json.schemastore.org/nest-cli",
  "collection": "@nestjs/schematics",
  "sourceRoot": "src",
  "compilerOptions": {
    "deleteOutDir": true,
    "plugins": ["@nestjs/swagger/plugin"],
    "assets": [
      { "include": "**/templates/**/*.hbs", "watchAssets": true },
      {
        "include": "**/public/**/*",
        "watchAssets": true
      }
    ],
    "watchAssets": true
  }
}
